^E:\PROJECTS\GREP\GREP\DEBUG\GREP.EXE.EMBED.MANIFEST.RES|E:\PROJECTS\GREP\GREP\DEBUG\MAIN.OBJ|E:\PROJECTS\GREP\GREP\DEBUG\MINIGREP.OBJ
/ERRORREPORT:PROMPT /OUT:"E:\Projects\grep\Debug\grep.exe" /INCREMENTAL /NOLOGO kernel32.lib user32.lib gdi32.lib winspool.lib comdlg32.lib advapi32.lib shell32.lib ole32.lib oleaut32.lib uuid.lib odbc32.lib odbccp32.lib /MANIFEST /ManifestFile:"Debug\grep.exe.intermediate.manifest" /MANIFESTUAC:"level='asInvoker' uiAccess='false'" /DEBUG /PDB:"E:\Projects\grep\Debug\grep.pdb" /SUBSYSTEM:CONSOLE /TLBID:1 /DYNAMICBASE /NXCOMPAT /IMPLIB:"E:\Projects\grep\Debug\grep.lib" /MACHINE:X86 Debug\grep.exe.embed.manifest.res
Debug\main.obj
Debug\minigrep.obj
